<svg xmlns="http://www.w3.org/2000/svg" width="16.224" height="17.915" viewBox="0 0 16.224 17.915">
  <g id="Icon_feather-shopping-bag" data-name="Icon feather-shopping-bag" transform="translate(0.5 0.5)">
    <path id="Path_16" data-name="Path 16" d="M7.037,3,4.5,6.383V18.224a1.692,1.692,0,0,0,1.692,1.692H18.032a1.692,1.692,0,0,0,1.692-1.692V6.383L17.186,3Z" transform="translate(-4.5 -3)" fill="none" stroke="#848484" stroke-linejoin="round" stroke-width="1"/>
    <path id="Path_17" data-name="Path 17" d="M4.5,9H19.724" transform="translate(-4.5 -5.617)" fill="none" stroke="#848484" stroke-linejoin="round" stroke-width="1"/>
    <path id="Path_18" data-name="Path 18" d="M18.766,15A3.383,3.383,0,0,1,12,15" transform="translate(-7.771 -8.234)" fill="none" stroke="#848484" stroke-linejoin="round" stroke-width="1"/>
  </g>
</svg>
