<svg xmlns="http://www.w3.org/2000/svg" width="58.6" height="58.6" viewBox="0 0 58.6 58.6">
  <g id="Icon_feather-arrow-right-circle" data-name="Icon feather-arrow-right-circle" transform="translate(0.75 0.75)">
    <path id="Path_12" data-name="Path 12" d="M60.1,31.55A28.55,28.55,0,1,1,31.55,3,28.55,28.55,0,0,1,60.1,31.55Z" transform="translate(-3 -3)" fill="none" stroke="#848484" stroke-linecap="round" stroke-linejoin="round" stroke-width="1.5"/>
    <path id="Path_13" data-name="Path 13" d="M18,34.84,29.42,23.42,18,12" transform="translate(6.84 5.13)" fill="none" stroke="#ceaba7" stroke-linejoin="round" stroke-width="1.5"/>
  </g>
</svg>
