<svg xmlns="http://www.w3.org/2000/svg" width="65" height="65" viewBox="0 0 65 65">
  <g id="Group_117" data-name="Group 117" transform="translate(-159 -896)">
    <circle id="Ellipse_17" data-name="Ellipse 17" cx="32.5" cy="32.5" r="32.5" transform="translate(159 896)" fill="#505050"/>
    <path id="Icon_ionic-logo-google" data-name="Icon ionic-logo-google" d="M27.758,13.834l-.125-.529h-11.5v4.867H23a6.876,6.876,0,0,1-6.727,5.17,8.044,8.044,0,0,1-5.413-2.157A7.728,7.728,0,0,1,8.559,15.73a7.971,7.971,0,0,1,2.264-5.449,7.7,7.7,0,0,1,5.378-2.1A7.014,7.014,0,0,1,20.776,9.96L24.234,6.52a12.236,12.236,0,0,0-8.147-3.137h0A12.594,12.594,0,0,0,7.174,7.007a12.543,12.543,0,0,0-3.518,8.729,12.417,12.417,0,0,0,3.381,8.586,12.9,12.9,0,0,0,9.3,3.773,11.471,11.471,0,0,0,8.355-3.512A12.336,12.336,0,0,0,27.9,16.039,14.228,14.228,0,0,0,27.758,13.834Z" transform="translate(175.722 913.261)" fill="#fff"/>
  </g>
</svg>
