<svg xmlns="http://www.w3.org/2000/svg" width="65" height="65" viewBox="0 0 65 65">
  <g id="Group_10" data-name="Group 10" transform="translate(-405 -5831)">
    <g id="Group_120" data-name="Group 120" transform="translate(15 -6)">
      <circle id="Ellipse_5" data-name="Ellipse 5" cx="32.5" cy="32.5" r="32.5" transform="translate(390 5837)" fill="#505050"/>
      <path id="Icon_awesome-behance" data-name="Icon awesome-behance" d="M10.1,12.346a3.3,3.3,0,0,0,2.107-3.222c0-3.074-2.29-3.822-4.933-3.822H0V20.73H7.479c2.8,0,5.438-1.345,5.438-4.48A3.718,3.718,0,0,0,10.1,12.346ZM3.391,7.935H6.574C7.8,7.935,8.9,8.279,8.9,9.7c0,1.31-.858,1.837-2.068,1.837H3.391v-3.6ZM7.018,18.11H3.391V13.861h3.7c1.493,0,2.438.623,2.438,2.2,0,1.559-1.128,2.046-2.508,2.046ZM22.625,7.631H16.369V6.111h6.256V7.631Zm2.451,7.675c0-3.3-1.933-6.06-5.438-6.06a5.614,5.614,0,0,0-5.716,5.912c0,3.478,2.19,5.864,5.716,5.864a4.98,4.98,0,0,0,5.229-3.757H22.159a2.542,2.542,0,0,1-2.425,1.458,2.526,2.526,0,0,1-2.743-2.843H25.05C25.063,15.7,25.076,15.5,25.076,15.306ZM17,13.948a2.4,2.4,0,0,1,2.547-2.386,2.287,2.287,0,0,1,2.447,2.386Z" transform="translate(409.962 5856.593)" fill="#fff"/>
    </g>
  </g>
</svg>
