<svg xmlns="http://www.w3.org/2000/svg" width="19.006" height="19.006" viewBox="0 0 19.006 19.006">
  <g id="Icon_feather-edit" data-name="Icon feather-edit" transform="translate(0.5 0.645)">
    <path id="Path_51" data-name="Path 51" d="M10.989,6H4.775A1.775,1.775,0,0,0,3,7.775V20.2a1.775,1.775,0,0,0,1.775,1.775H17.2A1.775,1.775,0,0,0,18.978,20.2V13.989" transform="translate(-3 -4.117)" fill="none" stroke="#848484" stroke-linecap="round" stroke-linejoin="round" stroke-width="1"/>
    <path id="Path_52" data-name="Path 52" d="M21.321,3.37a1.883,1.883,0,0,1,2.663,2.663l-8.433,8.433L12,15.353l.888-3.551Z" transform="translate(-6.674 -2.818)" fill="none" stroke="#848484" stroke-linecap="round" stroke-linejoin="round" stroke-width="1"/>
  </g>
</svg>
