<svg xmlns="http://www.w3.org/2000/svg" width="25.578" height="20.773" viewBox="0 0 25.578 20.773">
  <path id="Icon_awesome-twitter" data-name="Icon awesome-twitter" d="M22.949,8.558c.016.227.016.454.016.682A14.813,14.813,0,0,1,8.05,24.155,14.814,14.814,0,0,1,0,21.8a10.844,10.844,0,0,0,1.266.065,10.5,10.5,0,0,0,6.508-2.24,5.251,5.251,0,0,1-4.9-3.635,6.611,6.611,0,0,0,.99.081,5.544,5.544,0,0,0,1.379-.178,5.243,5.243,0,0,1-4.2-5.145v-.065a5.279,5.279,0,0,0,2.369.665A5.25,5.25,0,0,1,1.785,4.338,14.9,14.9,0,0,0,12.594,9.824a5.918,5.918,0,0,1-.13-1.2,5.247,5.247,0,0,1,9.072-3.587A10.321,10.321,0,0,0,24.864,3.77a5.228,5.228,0,0,1-2.3,2.889,10.509,10.509,0,0,0,3.019-.811,11.268,11.268,0,0,1-2.629,2.71Z" transform="translate(0 -3.381)" fill="#fff"/>
</svg>
