<?xml version="1.0" encoding="utf-8"?>
<!-- Generator: Adobe Illustrator 23.0.2, SVG Export Plug-In . SVG Version: 6.00 Build 0)  -->
<svg version="1.1" id="Layer_1" xmlns="http://www.w3.org/2000/svg" xmlns:xlink="http://www.w3.org/1999/xlink" x="0px" y="0px"
	 viewBox="0 0 245.5 107.8" style="enable-background:new 0 0 245.5 107.8;" xml:space="preserve">
<style type="text/css">
	.st0{fill:#555F3B;}
	.st1{fill:#8C8988;}
	.st2{fill:#9B8C8B;}
	.st3{fill:#A28987;}
	.st4{fill:#AC8B8A;}
	.st5{fill:#BF9795;}
	.st6{fill:#E2B8B7;}
	.st7{fill:none;}
</style>
<path class="st0" d="M11.1,105c-0.3,0.9-0.6,1.8-1,2.6c-1,0.3-2.1,0.4-3.2,0.5c-4.3,0-6.2-2.8-6.2-5.4c0-3.4,2.8-5.7,6.6-5.7
	c1,0,2.1,0.2,3.1,0.5c0.1,0.9,0.3,1.6,0.4,2.6l-0.5,0.1c-0.3-1.6-1.8-2.7-3.4-2.5c-2.9,0-4.4,2.3-4.4,4.7c0,3.1,1.9,5.1,4.5,5.1
	c1.7,0,2.7-0.9,3.6-2.6L11.1,105z"/>
<path class="st0" d="M31.3,96.9c3-0.1,5.5,2.3,5.6,5.3c0,0.1,0,0.1,0,0.2c0.1,3.1-2.3,5.6-5.4,5.7c-0.1,0-0.3,0-0.4,0
	c-3,0.1-5.5-2.3-5.6-5.3c0-0.1,0-0.1,0-0.2c0-3.1,2.5-5.6,5.6-5.7C31.1,96.9,31.2,96.9,31.3,96.9L31.3,96.9z M30.9,97.5
	c-1.9,0-3.7,1.5-3.7,4.6s1.8,5.3,4.2,5.3c1.9,0,3.6-1.5,3.6-4.6C35,99.3,33.1,97.5,30.9,97.5L30.9,97.5z"/>
<path class="st0" d="M57.6,99.7c-0.3-1-0.8-2.2-2.2-2.2c-0.9-0.1-1.8,0.6-1.8,1.6c0,0.1,0,0.1,0,0.2c0,1.1,0.8,1.7,2.1,2.4
	s2.9,1.5,2.9,3.3s-1.5,3.1-3.8,3.1c-0.6,0-1.1-0.1-1.7-0.3c-0.3-0.1-0.6-0.2-0.8-0.4c-0.2-0.9-0.4-1.7-0.5-2.6l0.5-0.1
	c0.3,1,1.1,2.7,2.8,2.7c1,0.1,1.8-0.6,1.9-1.6c0-0.1,0-0.2,0-0.3c0-1.2-0.9-1.7-2.2-2.4s-2.8-1.4-2.8-3.2c0-1.6,1.3-3,3.5-3
	c0.7,0,1.5,0.1,2.2,0.4c0.1,0.6,0.1,1.2,0.3,2.3L57.6,99.7z"/>
<path class="st0" d="M82.9,107.8v-0.5c1.4-0.1,1.4-0.2,1.4-2l-0.1-6.5h-0.1l-4.1,8.9h-0.3L76,99l0,0l-0.2,4.6c0,0.9,0,1.8,0,2.7
	c0,0.8,0.4,0.9,1.5,1v0.5h-3.9v-0.5c1-0.1,1.3-0.3,1.4-1s0.2-1.3,0.3-3l0.2-3.3c0.1-2.1,0.1-2.2-1.4-2.4v-0.5h2.9l3.8,8l3.8-8h2.9
	v0.5c-1.5,0.1-1.6,0.2-1.5,1.8l0.2,5.9c0,1.7,0.1,1.8,1.6,2v0.5L82.9,107.8z"/>
<path class="st0" d="M110.9,105.1c-0.1,0.6-0.4,2.1-0.6,2.6h-8.2v-0.5c1.5-0.1,1.6-0.3,1.6-1.6v-6.4c0-1.5-0.1-1.5-1.4-1.6v-0.5h7.6
	c0,0.4,0.1,1.5,0.1,2.4l-0.5,0.1c-0.1-0.5-0.3-1-0.6-1.4c-0.2-0.4-0.7-0.5-1.9-0.5h-1.2c-0.5,0-0.6,0-0.6,0.5v3.6h1.5
	c1.5,0,1.6-0.1,1.8-1.2h0.5v3.2h-0.5c-0.2-1.2-0.4-1.3-1.8-1.3h-1.5v3c0,0.8,0.1,1.1,0.4,1.3c0.5,0.2,1.1,0.2,1.7,0.2
	c1.2,0,1.7-0.1,2.1-0.5c0.4-0.5,0.6-1,0.9-1.6L110.9,105.1z"/>
<path class="st0" d="M134.5,99.8c-0.1-0.5-0.3-1.1-0.6-1.5c-0.3-0.4-0.6-0.5-1.8-0.5h-1.1v7.9c0,1.3,0.1,1.5,1.7,1.6v0.5h-5v-0.5
	c1.5-0.1,1.7-0.3,1.7-1.6v-7.9h-1c-1.5,0-1.8,0.2-2,0.5c-0.3,0.5-0.5,1-0.6,1.5h-0.5c0.1-1.1,0.1-2.1,0.2-3h0.4
	c0.2,0.4,0.5,0.4,1,0.4h6.8c0.3,0,0.7-0.1,0.9-0.4h0.4c0,0.7,0.1,2,0.2,3H134.5z"/>
<path class="st0" d="M149.7,107.8v-0.5c1.4-0.1,1.5-0.2,1.5-1.6v-6.4c0-1.4-0.1-1.5-1.5-1.6v-0.5h4.5v0.5c-1.4,0.1-1.5,0.2-1.5,1.6
	v6.4c0,1.4,0.1,1.5,1.5,1.6v0.5H149.7z"/>
<path class="st0" d="M179.7,105c-0.3,0.9-0.6,1.8-1,2.6c-1,0.3-2.1,0.4-3.2,0.5c-4.3,0-6.2-2.8-6.2-5.4c0-3.4,2.8-5.7,6.6-5.7
	c1,0,2.1,0.2,3.1,0.5c0.1,0.9,0.2,1.6,0.4,2.6l-0.5,0.1c-0.3-1.6-1.8-2.7-3.4-2.5c-2.8,0-4.4,2.3-4.4,4.7c0,3.1,1.9,5.1,4.5,5.1
	c1.7,0,2.7-0.9,3.5-2.6L179.7,105z"/>
<path class="st0" d="M200.2,99.7c-0.3-1-0.8-2.2-2.2-2.2c-0.9-0.1-1.8,0.6-1.8,1.6c0,0.1,0,0.1,0,0.2c0,1.1,0.8,1.7,2.1,2.4
	s2.9,1.5,2.9,3.3s-1.5,3.1-3.8,3.1c-0.6,0-1.1-0.1-1.7-0.3c-0.3-0.1-0.6-0.2-0.8-0.4c-0.2-0.9-0.3-1.7-0.5-2.6l0.5-0.1
	c0.3,1,1.1,2.7,2.8,2.7c1,0.1,1.8-0.6,1.9-1.6c0-0.1,0-0.2,0-0.3c0-1.2-0.9-1.7-2.2-2.4s-2.8-1.4-2.8-3.2c0-1.6,1.3-3,3.5-3
	c0.7,0,1.5,0.1,2.2,0.4c0.1,0.6,0.1,1.2,0.3,2.3L200.2,99.7z"/>
<path class="st1" d="M29,63.1c2.4,0,3.1,2.1,3.1,4c0,4.2-6.5,8.4-12.4,8.4c-6.6,0-14.5-4.1-14.5-16.7V25H0v-2.5
	c4.8,0,6.4-9.2,8.4-18.4L12.2,0v21.6h16.7l-1,3.5H11.7v33.2c0,9.2,3.8,14.1,8,14.1c5.1,0,6.5-5.2,6.5-7.4
	C26.8,63.9,27.8,63.2,29,63.1"/>
<path class="st2" d="M93.7,48.2c0,15.3-11.1,27.7-26.6,27.7S40.6,63.5,40.6,48.2s11.1-27.6,26.5-27.6S93.7,32.9,93.7,48.2
	 M85.5,47.7C84.2,33.3,76.1,24,65.8,24C56,24,47.4,34.3,48.6,48.7s10.5,24.5,19.9,24.5C77.7,73.2,86.7,62.1,85.5,47.7"/>
<path class="st3" d="M150.1,64.5c0,4.6,1.8,9.3,5.1,9.3V75h-16.6v-1.2c3.4,0,5.1-4.9,5.1-9.3V39.7c0-10.3-4.6-13.7-10.8-13.7
	c-8.1,0-15.4,6.8-17.3,9.5v29c0,3.7,1.7,9.3,5.1,9.3V75h-16.7v-1.2c3.4,0,5.1-5.3,5.1-9.3V31.1c0-3.4-1.2-7.1-4.6-7.1v-1.2l10.1-1.3
	l1,9.8c3.3-4.4,11.2-10.5,18.3-10.5c10.5,0,16.3,5.8,16.3,18.9L150.1,64.5z"/>
<path class="st4" d="M177.3,12.7c0,5.5-4,14.1-12.2,15v-1.4c3.2-0.4,9.3-4.5,7.5-11.3c-0.5-2-4.3-2.2-4.8-5.5
	c-0.4-2.3,1.2-4.4,3.4-4.8c0.3-0.1,0.6-0.1,1,0C176.3,4.8,177.3,9,177.3,12.7"/>
<path class="st5" d="M204.3,73.8V75H187v-1.2c3.4,0,5.6-5.8,5.6-9.1V31.3c0-3.4-1.5-7.5-4.9-7.5v-1.2l11-2.1v44.1
	C198.7,68,200.9,73.8,204.3,73.8 M190.2,8.6c0-2.4,1.9-4.3,4.3-4.3c2.4,0,4.3,1.9,4.3,4.3c0,2.4-1.9,4.3-4.3,4.3S190.2,11,190.2,8.6
	C190.2,8.6,190.2,8.6,190.2,8.6"/>
<path class="st6" d="M242.4,63.1c2.4,0,3.1,2.1,3.1,4c0,4.2-6.5,8.4-12.4,8.4c-6.6,0-14.5-4.1-14.5-16.7V25h-5.2v-2.5
	c4.8,0,6.4-9.2,8.4-18.4l3.8-4.2v21.6h16.7l-1,3.5h-16.2v33.2c0,9.2,3.8,14.1,8,14.1c5.1,0,6.5-5.2,6.5-7.4
	C240.2,63.9,241.3,63.2,242.4,63.1"/>
<rect x="-283.6" y="-252.3" class="st7" width="841.9" height="595.3"/>
</svg>
