<svg xmlns="http://www.w3.org/2000/svg" xmlns:xlink="http://www.w3.org/1999/xlink" width="83" height="80" viewBox="0 0 83 80">
  <defs>
    <clipPath id="clip-path">
      <rect id="Rectangle_176" data-name="Rectangle 176" width="83" height="80" transform="translate(555 440)" fill="#fff" stroke="#707070" stroke-width="1"/>
    </clipPath>
  </defs>
  <g id="Mask_Group_45" data-name="Mask Group 45" transform="translate(-555 -440)" clip-path="url(#clip-path)">
    <circle id="Ellipse_20" data-name="Ellipse 20" cx="56.5" cy="56.5" r="56.5" transform="translate(525 407)" fill="#998484"/>
  </g>
</svg>
