<svg xmlns="http://www.w3.org/2000/svg" width="4.681" height="7.863" viewBox="0 0 4.681 7.863">
  <path id="Path_13" data-name="Path 13" d="M18,18.8l3.4-3.4L18,12" transform="translate(-17.47 -11.47)" fill="none" stroke="#000" stroke-linejoin="round" stroke-width="1.5"/>
</svg>
